{"Page":{"Contents":[
{"Contents":[$(ERIC.AAAA.SIGN.1.MESSAGE.1.TYPE),"$(ERIC.AAAA.SIGN.1.MESSAGE.1.BODY)"],"Play":[0,0,0,false],"Prec":[0,0,0],"RenderType":"MessageHCP"},
{"Contents":[2,""],"Play":[0,0,20,false],"Prec":[0,0,0],"RenderType":"MessageHCP"},
{"Contents":[$(ERIC.AAAA.SIGN.1.MESSAGE.2.TYPE),"$(ERIC.AAAA.SIGN.1.MESSAGE.2.BODY)"],"Play":[0,0,0,false],"Prec":[0,0,0],"RenderType":"MessageHCP"},
{"Contents":[2,""],"Play":[0,0,20,false],"Prec":[0,0,0],"RenderType":"MessageHCP"}
],"Index":1,"Play":[0,0,0,true],"Prec":[0,0,0],"RenderType":"Page"},"Target":{"Channel":"192.168.9.20","Server":"LED","Sync":["sync1","sync2"]}}

